{
  "CM_SUT_CONFIG": {
    "greglos-reference-cpu-onnxruntime-v1.16.0-default_config": {
      "3d-unet-99": {
        "Offline": {
          "target_qps": 1.0
        },
        "Server": {
          "target_qps": 1.0
        },
        "SingleStream": {
          "target_latency": 1
        }
      },
      "3d-unet-99.9": {
        "Offline": {
          "target_qps": 1.0
        },
        "Server": {
          "target_qps": 1.0
        },
        "SingleStream": {
          "target_latency": 1
        }
      },
      "bert-99": {
        "Offline": {
          "target_qps": 1.0
        },
        "Server": {
          "target_qps": 1.0
        },
        "SingleStream": {
          "target_latency": 1
        }
      },
      "bert-99.9": {
        "Offline": {
          "target_qps": 1.0
        },
        "Server": {
          "target_qps": 1.0
        }
      },
      "gpt-j": {
        "Offline": {
          "target_qps": 1.0
        },
        "Server": {
          "target_qps": 1.0
        },
        "SingleStream": {
          "target_latency": 1
        }
      },
      "resnet50": {
        "MultiStream": {
          "target_latency": 0.1
        },
        "Offline": {
          "target_qps": 1.0
        },
        "Server": {
          "target_qps": 1.0
        },
        "SingleStream": {
          "target_latency": 0.1
        }
      },
      "retinanet": {
        "MultiStream": {
          "target_latency": 1
        },
        "Offline": {
          "target_qps": 1
        },
        "Server": {
          "target_qps": 1.0
        },
        "SingleStream": {
          "target_latency": 1
        }
      }
    }
  },
  "CM_SUT_CONFIG_NAME": "greglos-reference-cpu-onnxruntime-v1.16.0-default_config",
  "CM_SUT_CONFIG_PATH": {
    "greglos-reference-cpu-onnxruntime-v1.16.0-default_config": "/home/cesar/CM/repos/mlcommons@ck/cm-mlops/script/get-mlperf-inference-sut-configs/configs/greglos/reference-implementation/cpu-device/onnxruntime-framework/framework-version-v1.16.0/default_config-config.yaml"
  },
  "RUN": {
    "Offline": {}
  },
  "os_uname_all": "Linux greglos 6.2.0-35-generic #35~22.04.1-Ubuntu SMP PREEMPT_DYNAMIC Fri Oct  6 10:23:26 UTC 2 x86_64 x86_64 x86_64 GNU/Linux",
  "os_uname_machine": "x86_64"
}
